!
version 15.1
no service timestamps log datetime msec
no service timestamps debug datetime msec
no service password-encryption
!
hostname Router
!
!
!
!
!
!
!
!
no ip cef
no ipv6 cef
!
!
!
!
license udi pid CISCO2811/K9 sn FTX10171PW0-
!
!
!
!
!
!
!
!
!
!
!
spanning-tree mode pvst
!
!
!
!!
interface Vlan1
 no ip address
 shutdown
!
ip classless
ip route 0.0.0.0 0.0.0.0 15.203.48.178 
ip route 172.18.200.128 255.255.255.128 172.18.200.2 
ip route 172.18.201.0 255.255.255.128 172.18.200.3 
ip route 172.18.201.128 255.255.255.128 172.18.200.2 
ip route 172.18.202.0 255.255.255.128 172.18.200.2 
ip route 172.18.202.128 255.255.255.128 172.18.200.5 
ip route 172.18.203.0 255.255.255.128 172.18.200.2 
ip route 172.18.203.128 255.255.255.128 172.18.200.6 
ip route 172.18.204.0 255.255.255.192 172.18.200.4 
ip route 172.18.204.64 255.255.255.192 172.18.200.5 
ip route 172.18.204.128 255.255.255.192 172.18.200.6 
ip route 172.18.204.192 255.255.255.192 172.18.200.3 
ip route 172.18.205.0 255.255.255.192 172.18.200.4 
ip route 172.18.205.64 255.255.255.192 172.18.200.2 
ip route 172.18.205.128 255.255.255.192 172.18.200.6 
ip route 172.18.205.192 255.255.255.192 172.18.200.4 
ip route 172.18.206.0 255.255.255.192 172.18.200.4 
ip route 172.18.206.64 255.255.255.192 172.18.200.5 
ip route 172.18.206.128 255.255.255.192 172.18.200.3 
ip route 172.18.206.192 255.255.255.192 172.18.200.4 
ip route 172.18.207.0 255.255.255.192 172.18.200.6 
ip route 172.18.207.64 255.255.255.224 172.18.200.6 
ip route 172.18.207.96 255.255.255.224 172.18.200.3 
ip route 172.18.207.128 255.255.255.224 172.18.200.3 
ip route 172.18.207.160 255.255.255.224 172.18.200.5 
ip route 172.18.207.192 255.255.255.224 172.18.200.5 
!
ip flow-export version 9
!
!
!
!
!
!
!
!
line con 0
!
line aux 0
!
line vty 0 4
 login
!
!
!
end